<?xml version="1.0" encoding="utf-8"?>
<!-- Generator: Adobe Illustrator 19.0.0, SVG Export Plug-In . SVG Version: 6.00 Build 0)  -->
<svg version="1.1" id="Слой_1" xmlns="http://www.w3.org/2000/svg" xmlns:xlink="http://www.w3.org/1999/xlink" x="0px" y="0px"
	 viewBox="0 0 548.9 116.2" style="enable-background:new 0 0 548.9 116.2;" xml:space="preserve">
<style type="text/css">
	.st0{fill:url(#XMLID_67_);}
	.st1{fill:url(#XMLID_68_);}
	.st2{fill:#353849;}
	.st3{fill:url(#XMLID_69_);}
	.st4{fill:url(#XMLID_70_);}
	.st5{fill:url(#XMLID_71_);}
	.st6{fill:url(#XMLID_72_);}
	.st7{fill:url(#XMLID_73_);}
	.st8{fill:url(#XMLID_74_);}
	.st9{fill:url(#XMLID_75_);}
</style>
<g id="XMLID_65_">
	<linearGradient id="XMLID_67_" gradientUnits="userSpaceOnUse" x1="116.2708" y1="1.9167" x2="116.2708" y2="112.7242">
		<stop  offset="0" style="stop-color:#ECAF44"/>
		<stop  offset="0.5053" style="stop-color:#EADD53"/>
		<stop  offset="1" style="stop-color:#ECB044"/>
	</linearGradient>
	<path id="XMLID_64_" class="st0" d="M223.2,105.7H9.4c-4,0-7.3-3.2-7.3-7.3V14.9c0-4,3.2-7.3,7.3-7.3h213.8c4,0,7.3,3.2,7.3,7.3
		v83.5C230.4,102.4,227.2,105.7,223.2,105.7z"/>
	<linearGradient id="XMLID_68_" gradientUnits="userSpaceOnUse" x1="-1.0809" y1="15.268" x2="64.9191" y2="80.9347">
		<stop  offset="0" style="stop-color:#525AA2"/>
		<stop  offset="0.5053" style="stop-color:#6C73AC"/>
		<stop  offset="1" style="stop-color:#3C3E71"/>
	</linearGradient>
	<path id="XMLID_28_" class="st1" d="M68.7,28.9l0,30.5c0,2.6-0.9,4.8-2.7,6.7c-1.9,1.8-4.2,2.7-6.7,2.7c-1.1,0-2.9,0-5.1,0H29.5
		c-0.6,0-1,0.5-1,1V87c0,0.7-0.2,1.3-0.7,1.7c-0.5,0.5-1,0.7-1.7,0.7c-2.7,0-6.8,0-12.2,0c-0.7,0-1.3-0.2-1.7-0.7
		c-0.5-0.5-0.7-1-0.7-1.7c0-6.1,0-15.3,0-27.6c0-5.8,0-14.5,0-26c0-2.7,0-6.8,0-12.2c0-0.7,0.2-1.3,0.7-1.7s1-0.7,1.7-0.7
		c2.7,0,6.8,0,12.2,0c6.2,0,15.5,0,27.9,0c1.1,0,2.9,0,5.1,0c2,0,3.8,0.6,5.3,1.7C67.2,22.4,68.7,25.6,68.7,28.9z M51.6,48.8
		c0-2.4,0-5.9,0-10.8c0-0.7-0.3-1.3-0.8-1.7c-0.5-0.5-1-0.7-1.6-0.7c-4,0-10.1,0-18.1,0c-0.7,0-1.3,0.2-1.7,0.7s-0.7,1-0.7,1.7
		c0,2.4,0,5.9,0,10.8c0,0.7,0.2,1.3,0.7,1.7s1,0.7,1.7,0.7c4,0,10,0,18,0c0.6,0,1.1-0.2,1.6-0.7S51.6,49.5,51.6,48.8L51.6,48.8z"/>
	<path id="XMLID_32_" class="st2" d="M26.1,94.5H13.9c-1,0-1.8-0.3-2.4-1s-1-1.5-1-2.4V21.2c0-1,0.3-1.8,1-2.4c0.6-0.6,1.5-1,2.4-1
		h45.3c2.2,0,4.2,0.6,5.9,1.9c2.9,2,4.6,5.5,4.6,9.2v34.5c0,2.8-1,5.4-3,7.4c-2.1,2-4.6,3.1-7.5,3.1H31.7c-1.2,0-2.2,1-2.2,2.2l0,15
		c0,1-0.3,1.8-1,2.4C27.9,94.2,27.1,94.5,26.1,94.5z M13.9,19.8c-0.4,0-0.7,0.1-1,0.4c-0.3,0.3-0.4,0.6-0.4,1V87
		c0,0.4,0.1,0.7,0.4,1c0.3,0.3,0.6,0.4,1,0.4h12.2c0.4,0,0.7-0.1,1-0.4c0.3-0.3,0.4-0.6,0.4-1V72.1c0-2.3,1.9-4.2,4.2-4.2h27.5
		c2.3,0,4.3-0.8,6.1-2.5c1.6-1.7,2.4-3.7,2.4-6V28.9c0-3.1-1.4-6-3.7-7.6c-1.4-1-3-1.5-4.8-1.5H13.9z M49.1,52.2h-18
		c-1,0-1.8-0.3-2.4-1c-0.7-0.7-1-1.5-1-2.4V38c0-1,0.3-1.8,1-2.4c0.7-0.6,1.5-1,2.4-1h18.1c0.9,0,1.7,0.3,2.3,1
		c0.7,0.6,1.1,1.5,1.1,2.4v10.8c0,1.1-0.7,1.9-1.2,2.4C50.8,51.8,50,52.2,49.1,52.2z M31.2,41.3c-0.4,0-0.7,0.1-1,0.4
		c-0.3,0.3-0.4,0.6-0.4,1v6.1c0,0.4,0.1,0.7,0.4,1c0.3,0.3,0.6,0.4,1,0.4h18c0.3,0,0.6-0.1,0.9-0.4c0.3-0.3,0.6-0.7,0.6-1v-6.1
		c0-0.4-0.1-0.7-0.5-1c-0.3-0.3-0.6-0.4-0.9-0.4H31.2z"/>
	<linearGradient id="XMLID_69_" gradientUnits="userSpaceOnUse" x1="79.8341" y1="12.3144" x2="148.1674" y2="93.3144">
		<stop  offset="0" style="stop-color:#525AA2"/>
		<stop  offset="0.5053" style="stop-color:#6C73AC"/>
		<stop  offset="1" style="stop-color:#3C3E71"/>
	</linearGradient>
	<path id="XMLID_3_" class="st3" d="M145.6,28.4c0,6.9,0,17.2,0,31c0,2.6-0.9,4.8-2.7,6.7c-1.9,1.8-4.2,2.7-6.7,2.7
		c-0.9,0-2.3,0-4.1,0c2.9,4,7.2,10.1,13,18.1c0.5,0.7,0.6,1.3,0.5,1.7c-0.2,0.5-0.5,0.7-1.1,0.7c-3.6,0-9,0-16.1,0
		c-0.6,0-1.3-0.2-2.2-0.7c-0.8-0.5-1.4-1-1.8-1.7c-2.9-4-7.2-10-12.9-18.1c-1.3,0-3.2,0-5.7,0c0,4,0,10.1,0,18.1
		c0,0.7-0.2,1.3-0.7,1.7c-0.5,0.5-1.1,0.7-1.7,0.7c-2.7,0-6.8,0-12.2,0c-0.7,0-1.3-0.2-1.7-0.7c-0.5-0.5-0.7-1-0.7-1.7
		c0-5.5,0-13.7,0-24.7c0-9.1,0-22.8,0-41.1c0-0.6,0.2-1.1,0.7-1.6s1-0.7,1.7-0.7c2.7,0,6.7,0,12.2,0c7.3,0,18.3,0,32.8,0
		c2.6,0,4.8,0.9,6.7,2.7C144.5,23.4,145.5,25.7,145.6,28.4z M105.5,38c0,2.4,0,6,0,10.9c0,0.6,0.2,1.1,0.7,1.6s1,0.7,1.6,0.7
		c4.1,0,10.3,0,18.5,0c0.6,0,1.1-0.2,1.6-0.7s0.7-1,0.7-1.6c0-2.4,0-6.1,0-10.9c0-0.7-0.2-1.3-0.7-1.7s-1-0.7-1.6-0.7
		c-4.1,0-10.3,0-18.5,0c-0.6,0-1.1,0.2-1.6,0.7S105.5,37.3,105.5,38z"/>
	<path id="XMLID_37_" class="st2" d="M148.5,90.4c1.7,2.5,0.9,4.1-1.1,4.1c0,0,0,0,0,0h-16.1c-0.8,0-1.7-0.3-2.7-0.8
		c-0.9-0.6-1.6-1.2-2.2-2c-2.7-3.6-6.9-9.5-11.9-16.5c-0.5-0.7-1.4-1.2-2.3-1.2l-4,0c-0.9,0-1.7,0.8-1.7,1.7v15.5c0,1-0.3,1.8-1,2.4
		c-0.8,0.7-1.6,1-2.4,1H90.9c-1,0-1.8-0.3-2.4-1s-1-1.5-1-2.4V21.2c0-0.9,0.3-1.7,1-2.3c0.6-0.6,1.5-1,2.4-1H136c2.8,0,5.4,1,7.4,3
		c2,2,3.1,4.5,3.2,7.4l0,0v35.1c0,2.8-1,5.4-3,7.4c-2.1,2-4.6,3.1-7.5,3.1h0.7L148.5,90.4z M125,86.3c0.4,0.6,0.9,1.1,1.5,1.4
		c0.8,0.4,1.4,0.5,1.7,0.5h16.1c0.2,0,0.2,0,0.2,0c0,0,0-0.3-0.4-0.8c-5.8-8-10.1-14-13-18l-1.1-1.6h6.1c2.3,0,4.3-0.8,6.1-2.5
		c1.6-1.7,2.4-3.7,2.4-6v-31c-0.1-2.4-0.9-4.4-2.6-6.1c-1.7-1.6-3.7-2.5-6-2.5H90.9c-0.4,0-0.7,0.1-1,0.4c-0.3,0.3-0.4,0.6-0.4,0.9
		v65.8c0,0.4,0.1,0.7,0.4,1c0.3,0.3,0.6,0.4,1,0.4h12.2c0.4,0,0.7-0.1,1.1-0.4c0.2-0.2,0.3-0.5,0.3-1V70c0-1.2,1-2.2,2.2-2.2h4.1
		c0.6,0,1.1,0.3,1.4,0.7L125,86.3z M126.3,52.1h-18.5c-0.9,0-1.7-0.3-2.3-1c-0.7-0.7-1-1.4-1-2.3V38c0-1,0.3-1.8,1-2.4
		c0.7-0.6,1.4-1,2.3-1h18.5c0.9,0,1.7,0.3,2.3,1c0.7,0.7,1,1.5,1,2.4v10.9c0,0.9-0.3,1.7-1,2.3C128,51.8,127.2,52.1,126.3,52.1z
		 M107.8,41.3c-0.3,0-0.6,0.1-0.9,0.4c-0.3,0.3-0.4,0.6-0.4,1v6.1c0,0.3,0.1,0.6,0.4,0.9c0.3,0.3,0.5,0.4,0.9,0.4h18.5
		c0.3,0,0.6-0.1,0.9-0.4c0.3-0.3,0.4-0.5,0.4-0.9v-6.1c0-0.4-0.1-0.7-0.4-1c-0.3-0.3-0.6-0.4-0.9-0.4H107.8z"/>
	<g id="XMLID_47_">
		<linearGradient id="XMLID_70_" gradientUnits="userSpaceOnUse" x1="153.9112" y1="9.4421" x2="220.9112" y2="87.6921">
			<stop  offset="0" style="stop-color:#525AA2"/>
			<stop  offset="0.5053" style="stop-color:#6C73AC"/>
			<stop  offset="1" style="stop-color:#3C3E71"/>
		</linearGradient>
		<path id="XMLID_2_" class="st4" d="M218,21.7c-1.8-1.9-4.1-2.9-6.8-2.9c-2.2,0-3.9,0-5,0c-12.4,0-21.7,0-27.9,0c-2.3,0-4,0-5.1,0
			c-2.6,0-4.8,1-6.7,2.9c-1.8,1.8-2.7,4-2.7,6.6c0,9.1,0,15.9,0,20.5c0,4.7,0,8.2,0,10.5c0,9.1,0,15.9,0,20.5c0,2.6,0.9,4.8,2.7,6.7
			c1.9,1.8,4.2,2.7,6.7,2.7c2.3,0,4,0,5.1,0c12.4,0,21.6,0,27.8,0c2.3,0,4,0,5,0c2.7,0,4.9-0.9,6.7-2.7c1.9-1.9,2.9-4.2,2.9-6.7
			c0-9.1,0-15.9,0-20.5c0-4.7,0-8.2,0-10.5c0-9.1,0-15.9,0-20.5c0-0.1,0-0.2,0-0.2C220.7,25.6,219.8,23.5,218,21.7z M203.7,39.5
			c0,4.2,0,7.4,0,9.5c0,4.3,0,7.5,0,9.6c0,4.7,0,8.1,0,10.4c0,0.2,0,0.3,0,0.5h-0.1c0,0.6-0.2,1.1-0.7,1.6c-0.5,0.5-1,0.7-1.7,0.7
			c-7.9,0-13.9,0-18,0c-0.6,0-1.1-0.2-1.6-0.7c-0.5-0.5-0.7-1-0.7-1.6c0-0.2,0-0.4,0-0.5c0-4.7,0-8.1,0-10.4c0-4.3,0-7.5,0-9.6
			c0-4.3,0-7.4,0-9.5c0-0.6,0-1.1,0-1.4c0-0.6,0.2-1.1,0.7-1.6s1-0.7,1.6-0.7c8.1,0,14.1,0,18.1,0c0.7,0,1.3,0.2,1.7,0.7
			c0.5,0.5,0.7,1,0.7,1.6C203.7,38.7,203.7,39.2,203.7,39.5z"/>
		<path id="XMLID_31_" class="st2" d="M211.1,94.5h-38c-2.8,0-5.4-1-7.4-3c-2-2.1-3.1-4.6-3.1-7.5V28.4c0-2.9,1-5.3,3-7.3
			c2.1-2.1,4.6-3.2,7.5-3.2h38.1c2.9,0,5.4,1.1,7.5,3.2c2,1.9,3,4.3,3,7.1V84c0,2.9-1.1,5.4-3.2,7.5C216.5,93.5,214,94.5,211.1,94.5
			z M173.1,19.9c-2.3,0-4.3,0.8-6,2.6c-1.6,1.7-2.5,3.6-2.5,5.9v51.5c0,2.3,0.8,4.3,2.5,6.1c1.7,1.6,3.7,2.4,6,2.4h38
			c2.4,0,4.4-0.8,6-2.5c1.7-1.7,2.6-3.7,2.6-6V28.1c0-2.3-0.8-4.1-2.4-5.7l0,0c-1.6-1.7-3.6-2.6-6-2.6H173.1z M201.2,72.7h-18
			c-0.9,0-1.7-0.3-2.3-1s-1-1.4-1-2.3V38.1c0-0.9,0.3-1.7,1-2.3c0.7-0.7,1.4-1,2.3-1h18.1c1,0,1.8,0.3,2.4,1c0.6,0.6,1,1.4,1,2.3
			v32.3h-0.3c-0.2,0.5-0.4,0.9-0.8,1.3C202.9,72.4,202.1,72.7,201.2,72.7z M183.2,41.3c-0.3,0-0.6,0.1-0.9,0.4
			c-0.3,0.3-0.4,0.6-0.4,0.9v26.8c0,0.3,0.1,0.6,0.4,0.9c0.3,0.3,0.5,0.4,0.9,0.4h18c0.4,0,0.7-0.1,1-0.4c0.3-0.3,0.4-0.5,0.4-0.9
			v-1h0.1V42.6c0-0.3-0.1-0.6-0.4-0.9c-0.3-0.3-0.6-0.4-1-0.4H183.2z"/>
	</g>
	<linearGradient id="XMLID_71_" gradientUnits="userSpaceOnUse" x1="249.0908" y1="-0.2554" x2="298.7574" y2="112.4113">
		<stop  offset="0" style="stop-color:#ECAF44"/>
		<stop  offset="0.5053" style="stop-color:#EADD53"/>
		<stop  offset="1" style="stop-color:#ECB044"/>
	</linearGradient>
	<path id="XMLID_12_" class="st5" d="M301.3,20.2c0,2.7,0,6.7,0,12c0,0.6-0.2,1.1-0.7,1.6c-0.5,0.5-1,0.7-1.7,0.7
		c-8.5,0-21.1,0-38,0c0,2.3,0,5.7,0,10.2c4.8,0,12.1,0,21.8,0c0.8,0,1.9,0,3.5,0c1.1,0,2.9,0,5.1,0c2.5,0,4.7,0.9,6.5,2.6
		c1.8,1.8,2.8,3.9,3,6.4c0,5.6,0,14.1,0,25.5c-0.2,2.5-1.1,4.7-3,6.4c-1.8,1.8-4,2.6-6.5,2.6c-1.1,0-2.9,0-5.1,0
		c-6.2,0-15.4,0-27.8,0c-1.1,0-2.9,0-5.1,0c-1.6,0-4,0-7.1,0c-0.7,0-1.3-0.2-1.7-0.7c-0.5-0.5-0.7-1-0.7-1.7c0-2.7,0-6.7,0-12
		c0-0.6,0.2-1.1,0.7-1.6c0.5-0.5,1-0.8,1.7-0.8c8.5,0,21.1,0,38,0c0-2.2,0-5.5,0-10c-5.6,0-14.1,0-25.5,0c-1.1,0-2.9,0-5.1,0
		c-2.6,0-4.8-0.9-6.6-2.7c-1.8-1.8-2.8-3.9-2.9-6.5c0-5.6,0-14.1,0-25.3c0.1-2.6,1-4.8,2.9-6.5c1.9-1.8,4.1-2.6,6.6-2.6
		c1.1,0,2.9,0,5.1,0c6.2,0,15.4,0,27.8,0c1.1,0,2.9,0,5.1,0c1.5,0,3.9,0,7.1,0c0.7,0,1.3,0.2,1.7,0.7C301,19,301.3,19.5,301.3,20.2z
		"/>
	<path id="XMLID_49_" class="st2" d="M291.5,94.3h-45.2c-1,0-1.8-0.3-2.4-1c-0.6-0.6-1-1.5-1-2.4V74.8c0-0.9,0.3-1.7,1-2.3
		c0.6-0.7,1.4-1.1,2.4-1.1h35.3c0.9,0,1.7-0.8,1.7-1.7v-1.8c0-0.9-0.8-1.7-1.7-1.7h-27.9c-2.9,0-5.3-1-7.3-3c-2-1.9-3.1-4.3-3.2-7.2
		v-28c0.1-2.9,1.1-5.3,3.2-7.2c2.1-1.9,4.6-2.9,7.3-2.9h45.2c1,0,1.8,0.3,2.4,1c0.6,0.6,1,1.4,1.1,2.3l0,0.1v16.8
		c0,0.9-0.3,1.7-1,2.3c-0.6,0.6-1.5,1-2.4,1h-35.3c-0.9,0-1.7,0.8-1.7,1.7l0,0c0,0.9,0.8,1.7,1.7,1.7h27.8c2.8,0,5.2,1,7.2,2.9
		c2,1.9,3.1,4.3,3.3,7.1l0,29.7c-0.2,2.8-1.3,5.2-3.3,7.1C296.7,93.4,294.3,94.3,291.5,94.3z M246.3,73.4c-0.4,0-0.7,0.1-1,0.5
		c-0.3,0.3-0.4,0.6-0.4,1v12c0,0.4,0.1,0.7,0.4,1c0.3,0.3,0.6,0.4,1,0.4h45.2c2.3,0,4.2-0.8,5.8-2.4c1.7-1.6,2.5-3.5,2.7-5.7l0-25.4
		c-0.1-2.2-1-4.1-2.7-5.7c-1.7-1.6-3.6-2.4-5.8-2.4h-29.8c-0.9,0-1.7-0.8-1.7-1.7v-8.8c0-0.9,0.8-1.7,1.7-1.7h37.3
		c0.4,0,0.7-0.1,1-0.4c0.3-0.3,0.4-0.5,0.4-0.9v-12c-0.1-0.4-0.2-0.8-0.5-1.1c-0.3-0.3-0.6-0.4-1-0.4h-45.2c-2.3,0-4.2,0.8-6,2.4
		c-1.6,1.6-2.5,3.5-2.5,5.8v25.2c0.1,2.3,0.9,4.2,2.6,5.8c1.7,1.7,3.6,2.5,5.9,2.5h29.9c0.9,0,1.7,0.8,1.7,1.7v8.5
		c0,0.9-0.8,1.7-1.7,1.7H246.3z"/>
	<linearGradient id="XMLID_72_" gradientUnits="userSpaceOnUse" x1="495.6741" y1="-0.2554" x2="545.3408" y2="112.4113">
		<stop  offset="0" style="stop-color:#ECAF44"/>
		<stop  offset="0.5053" style="stop-color:#EADD53"/>
		<stop  offset="1" style="stop-color:#ECB044"/>
	</linearGradient>
	<path id="XMLID_61_" class="st6" d="M547.9,20.2c0,2.7,0,6.7,0,12c0,0.6-0.2,1.1-0.7,1.6c-0.5,0.5-1,0.7-1.7,0.7
		c-8.5,0-21.1,0-38,0c0,2.3,0,5.7,0,10.2c4.8,0,12.1,0,21.8,0c0.8,0,1.9,0,3.5,0c1.1,0,2.9,0,5.1,0c2.5,0,4.7,0.9,6.5,2.6
		c1.8,1.8,2.8,3.9,3,6.4c0,5.6,0,14.1,0,25.5c-0.2,2.5-1.1,4.7-3,6.4c-1.8,1.8-4,2.6-6.5,2.6c-1.1,0-2.9,0-5.1,0
		c-6.2,0-15.4,0-27.8,0c-1.1,0-2.9,0-5.1,0c-1.6,0-4,0-7.1,0c-0.7,0-1.3-0.2-1.7-0.7c-0.5-0.5-0.7-1-0.7-1.7c0-2.7,0-6.7,0-12
		c0-0.6,0.2-1.1,0.7-1.6c0.5-0.5,1-0.8,1.7-0.8c8.5,0,21.1,0,38,0c0-2.2,0-5.5,0-10c-5.6,0-14.1,0-25.5,0c-1.1,0-2.9,0-5.1,0
		c-2.6,0-4.8-0.9-6.6-2.7c-1.8-1.8-2.8-3.9-2.9-6.5c0-5.6,0-14.1,0-25.3c0.1-2.6,1-4.8,2.9-6.5c1.9-1.8,4.1-2.6,6.6-2.6
		c1.1,0,2.9,0,5.1,0c6.2,0,15.4,0,27.8,0c1.1,0,2.9,0,5.1,0c1.5,0,3.9,0,7.1,0c0.7,0,1.3,0.2,1.7,0.7
		C547.6,19,547.8,19.5,547.9,20.2z"/>
	<path id="XMLID_22_" class="st2" d="M538.1,94.3h-45.2c-1,0-1.8-0.3-2.4-1c-0.6-0.6-1-1.5-1-2.4V74.8c0-0.9,0.3-1.7,1-2.3
		c0.6-0.7,1.4-1.1,2.4-1.1h35.3c0.9,0,1.7-0.8,1.7-1.7v-1.8c0-0.9-0.8-1.7-1.7-1.7h-27.9c-2.9,0-5.3-1-7.3-3c-2-1.9-3.1-4.3-3.2-7.2
		v-28c0.1-2.9,1.1-5.3,3.2-7.2c2.1-1.9,4.6-2.9,7.3-2.9h45.2c1,0,1.8,0.3,2.4,1c0.6,0.6,1,1.4,1.1,2.3l0,0.1v16.8
		c0,0.9-0.3,1.7-1,2.3c-0.6,0.6-1.5,1-2.4,1h-35.3c-0.9,0-1.7,0.8-1.7,1.7l0,0c0,0.9,0.8,1.7,1.7,1.7h27.8c2.8,0,5.2,1,7.2,2.9
		c2,1.9,3.1,4.3,3.3,7.1l0,29.7c-0.2,2.8-1.3,5.2-3.3,7.1C543.3,93.4,540.9,94.3,538.1,94.3z M492.9,73.4c-0.4,0-0.7,0.1-1,0.5
		c-0.3,0.3-0.4,0.6-0.4,1v12c0,0.4,0.1,0.7,0.4,1c0.3,0.3,0.6,0.4,1,0.4h45.2c2.3,0,4.2-0.8,5.8-2.4c1.7-1.6,2.5-3.5,2.7-5.7l0-25.4
		c-0.1-2.2-1-4.1-2.7-5.7c-1.7-1.6-3.6-2.4-5.8-2.4h-29.8c-0.9,0-1.7-0.8-1.7-1.7v-8.8c0-0.9,0.8-1.7,1.7-1.7h37.3
		c0.4,0,0.7-0.1,1-0.4c0.3-0.3,0.4-0.5,0.4-0.9v-12c-0.1-0.4-0.2-0.8-0.5-1.1c-0.3-0.3-0.6-0.4-1-0.4h-45.2c-2.3,0-4.2,0.8-6,2.4
		c-1.6,1.6-2.5,3.5-2.5,5.8v25.2c0.1,2.3,0.9,4.2,2.6,5.8c1.7,1.7,3.6,2.5,5.9,2.5h29.9c0.9,0,1.7,0.8,1.7,1.7v8.5
		c0,0.9-0.8,1.7-1.7,1.7H492.9z"/>
	<linearGradient id="XMLID_73_" gradientUnits="userSpaceOnUse" x1="293.1701" y1="-2.059" x2="345.4651" y2="113.737">
		<stop  offset="0" style="stop-color:#ECAF44"/>
		<stop  offset="0.5053" style="stop-color:#EADD53"/>
		<stop  offset="1" style="stop-color:#ECB044"/>
	</linearGradient>
	<path id="XMLID_14_" class="st7" d="M308.6,85.9c0-0.1,0-0.2,0-0.3c0-2.6,0-6.4,0-11.6c0-4.5,0-11.2,0-20.2c0-7.5,0-18.6,0-33.5
		c0-0.7,0.2-1.3,0.7-1.7c0.5-0.5,1-0.7,1.7-0.7c2.7,0,6.6,0,11.9,0c0.7,0,1.3,0.2,1.7,0.7c0.5,0.5,0.7,1,0.7,1.7
		c0,11.4,0,28.5,0,51.4c9.2,0,5.8,0,24.1,0c0.7,0,1.3,0.2,1.7,0.7c0.5,0.5,0.7,1,0.7,1.7c0,2.7,0,6.6,0,11.9c0,0.7-0.2,1.3-0.7,1.7
		c-0.5,0.5-1,0.7-1.7,0.7c-12.4,0-13.7,0-38.4,0c-0.7,0-1.3-0.2-1.7-0.7C308.8,87.1,308.6,86.6,308.6,85.9z"/>
	<path id="XMLID_39_" class="st2" d="M349.4,94.3H311c-1,0-1.8-0.3-2.4-1c-0.6-0.6-1-1.5-1-2.4V21.1c0-1,0.3-1.8,1-2.4
		c0.6-0.6,1.5-1,2.4-1h11.9c1,0,1.8,0.3,2.4,1c0.6,0.6,1,1.5,1,2.4v50.4h23.1c0.9,0,1.8,0.3,2.4,1c0.6,0.6,1,1.5,1,2.4v16.1
		c0,0.9-0.3,1.8-1,2.4C351.2,94,350.4,94.3,349.4,94.3z M311,19.7c-0.4,0-0.7,0.1-1,0.4c-0.3,0.3-0.4,0.6-0.4,1v65.7
		c0,0.4,0.1,0.7,0.4,1c0.3,0.3,0.6,0.4,1,0.4h38.4c0.4,0,0.7-0.1,1-0.4c0.3-0.3,0.4-0.6,0.4-1V74.9c0-0.4-0.1-0.7-0.4-1
		c-0.3-0.3-0.6-0.4-1-0.4h-25.1V21.1c0-0.4-0.1-0.7-0.4-1c-0.3-0.3-0.6-0.4-1-0.4H311z"/>
	<linearGradient id="XMLID_74_" gradientUnits="userSpaceOnUse" x1="360.6499" y1="14.0924" x2="421.3999" y2="95.8424">
		<stop  offset="0" style="stop-color:#ECAF44"/>
		<stop  offset="0.5053" style="stop-color:#EADD53"/>
		<stop  offset="1" style="stop-color:#ECB044"/>
	</linearGradient>
	<path id="XMLID_16_" class="st8" d="M418.1,27.3c0,4.6,0,11.4,0,20.5c0,2.4,0,5.9,0,10.5c0,4.6,0,11.4,0,20.5c0,2.6-1,4.8-2.9,6.7
		c-1.8,1.8-4.1,2.7-6.7,2.7c-1.1,0-2.7,0-5,0c-6.2,0-15.4,0-27.8,0c-1.1,0-2.9,0-5.1,0c-2.6,0-4.8-0.9-6.7-2.7
		c-1.8-1.9-2.7-4.2-2.7-6.7c0-4.6,0-11.4,0-20.5c0-2.4,0-5.9,0-10.5c0-4.6,0-11.4,0-20.5c0-2.6,0.9-4.8,2.7-6.6
		c1.9-1.9,4.2-2.9,6.7-2.9c1.1,0,2.9,0,5.1,0c6.2,0,15.5,0,27.9,0c1.1,0,2.8,0,5,0c2.7,0,4.9,1,6.7,2.9c1.8,1.8,2.7,3.9,2.7,6.4
		C418.1,27.2,418.1,27.2,418.1,27.3z M401.1,68.4c0-0.2,0-0.3,0-0.5c0-2.3,0-5.8,0-10.4c0-2.1,0-5.3,0-9.6c0-2.1,0-5.3,0-9.5
		c0-0.3,0-0.8,0-1.4c0-0.6-0.2-1.1-0.7-1.6c-0.5-0.5-1-0.7-1.7-0.7c-4,0-10,0-18.1,0c-0.6,0-1.1,0.2-1.6,0.7c-0.5,0.5-0.7,1-0.7,1.6
		c0,0.3,0,0.8,0,1.4c0,2.1,0,5.2,0,9.5c0,2.1,0,5.3,0,9.6c0,2.3,0,5.8,0,10.4c0,0.1,0,0.2,0,0.5c0,0.6,0.2,1.1,0.7,1.6
		c0.5,0.5,1,0.7,1.6,0.7c4,0,10,0,18,0c0.7,0,1.3-0.2,1.7-0.7c0.5-0.5,0.7-1,0.7-1.6H401.1z"/>
	<path id="XMLID_52_" class="st2" d="M408.5,94.3h-38c-2.8,0-5.4-1-7.4-3c-2-2.1-3.1-4.6-3.1-7.5V28.2c0-2.9,1-5.3,3-7.3
		c2.1-2.1,4.6-3.2,7.5-3.2h38.1c2.9,0,5.5,1.1,7.5,3.2c2,1.9,3,4.3,3,7.1v55.9c0,2.9-1.1,5.4-3.2,7.5
		C414,93.3,411.5,94.3,408.5,94.3z M370.6,19.7c-2.3,0-4.3,0.8-6,2.6c-1.7,1.7-2.5,3.6-2.5,5.9v51.5c0,2.3,0.8,4.3,2.5,6.1
		c1.7,1.6,3.7,2.4,6,2.4h38c2.4,0,4.4-0.8,6-2.5c1.7-1.7,2.6-3.7,2.6-6V28c0-2.3-0.8-4.1-2.4-5.7c-1.7-1.7-3.7-2.6-6.1-2.6H370.6z
		 M398.6,72.6h-18c-0.9,0-1.7-0.3-2.3-1c-0.6-0.6-1-1.4-1-2.3V37.9c0-0.9,0.3-1.7,1-2.3c0.7-0.7,1.4-1,2.3-1h18.1c1,0,1.8,0.3,2.4,1
		c0.6,0.6,1,1.4,1,2.3v32.3h-0.3c-0.2,0.5-0.4,0.9-0.8,1.3C400.4,72.2,399.5,72.6,398.6,72.6z M380.6,41.2c-0.3,0-0.6,0.1-0.9,0.4
		c-0.3,0.3-0.4,0.6-0.4,0.9v26.8c0,0.3,0.1,0.6,0.4,0.9c0.3,0.3,0.5,0.4,0.9,0.4h18c0.4,0,0.7-0.1,1-0.4c0.3-0.3,0.4-0.5,0.4-0.9v-1
		h0.1V42.4c0-0.3-0.1-0.6-0.4-0.9c-0.3-0.3-0.6-0.4-1-0.4H380.6z"/>
	<linearGradient id="XMLID_75_" gradientUnits="userSpaceOnUse" x1="497.0079" y1="109.8436" x2="434.0079" y2="0.8436">
		<stop  offset="0" style="stop-color:#ECAF44"/>
		<stop  offset="0.5053" style="stop-color:#EADD53"/>
		<stop  offset="1" style="stop-color:#ECB044"/>
	</linearGradient>
	<path id="XMLID_19_" class="st9" d="M482.6,20.3c0,2.7,0,6.7,0,12c0,0.6-0.2,1.1-0.7,1.6c-0.5,0.5-1,0.8-1.6,0.8h-13.8
		c-2.2,0-3.9,1.8-3.9,3.9v47.3c0,0.7-0.3,1.3-0.8,1.7c-0.5,0.5-1,0.7-1.6,0.7c-2.7,0-6.7,0-12,0c-0.7,0-1.3-0.2-1.7-0.7
		c-0.5-0.5-0.7-1-0.7-1.7V38.6c0-2.2-1.8-3.9-3.9-3.9h-13.8c-0.7,0-1.3-0.3-1.7-0.8c-0.5-0.5-0.7-1-0.7-1.6c0-2.7,0-6.7,0-12
		c0-0.7,0.2-1.3,0.7-1.7c0.5-0.5,1-0.7,1.7-0.7c4.3,0,10.9,0,19.6,0c7.2,0,18.1,0,32.7,0c0.6,0,1.1,0.2,1.6,0.7
		S482.6,19.6,482.6,20.3z"/>
	<path id="XMLID_57_" class="st2" d="M460.2,94.5h-12c-1,0-1.8-0.3-2.4-1c-0.6-0.6-1-1.5-1-2.4V44.9c0-2-1.6-3.6-3.6-3.6h-13.1
		c-1,0-1.8-0.4-2.5-1.2c-0.6-0.6-0.9-1.4-0.9-2.3V21.3c0-1,0.3-1.8,1-2.4c0.6-0.6,1.5-1,2.4-1h52.3c0.9,0,1.7,0.3,2.3,1
		c0.6,0.6,1,1.5,1,2.4v16.6c0,0.9-0.3,1.7-1,2.3c-0.6,0.7-1.4,1.1-2.3,1.1h-13.1c-2,0-3.6,1.6-3.6,3.6v46.2c0,1-0.4,1.8-1.1,2.5
		C461.9,94.2,461.1,94.5,460.2,94.5z M428.1,19.9c-0.4,0-0.7,0.1-1,0.4c-0.3,0.3-0.4,0.6-0.4,1v12c0,0.3,0.1,0.6,0.4,0.9
		c0.3,0.4,0.6,0.5,1,0.5h15.1c2,0,3.6,1.6,3.6,3.6v48.6c0,0.4,0.1,0.7,0.4,1c0.3,0.3,0.6,0.4,1,0.4h12c0.3,0,0.6-0.1,0.9-0.4
		c0.4-0.3,0.5-0.6,0.5-1V38.3c0-2,1.6-3.6,3.6-3.6h15.1c0.2,0,0.5-0.1,0.8-0.5c0.3-0.3,0.4-0.6,0.4-1v-12c0-0.4-0.1-0.7-0.4-1
		c-0.3-0.3-0.6-0.4-0.9-0.4H428.1z"/>
	<path id="XMLID_10_" class="st2" d="M20,0C9,0,0,2.3,0,13.3v28c0,1.2,1.1,2.2,2.3,2c1-0.1,1.7-1.1,1.7-2.1l0-20.6c0-5,4-9,9-9h54.2
		c5,0,9,4,9,9v20.6c0,1,0.7,2,1.7,2.1c0.1,0,0.1,0,0.2,0c0.1,0,0.1,0,0.2,0c0.1,0,0.1,0,0.2,0c0.1,0,0.1,0,0.2,0
		c1-0.1,1.7-1.1,1.7-2.1V20.6c0-5,4-9,9-9h54.2c4.7,0,8.5,3.6,9,8.2v21.6c0,1,0.7,1.8,1.7,2c0,0,0,0,0,0c0,0,0,0,0,0
		c0.1,0,0.2,0,0.3,0c0.1,0,0.2,0,0.3,0c0,0,0,0,0,0c0,0,0,0,0,0c1-0.1,1.7-1,1.7-2V19.7c0.4-4.6,4.3-8.2,9-8.2h54.2c5,0,9,4,9,9
		v20.6c0,1,0.7,2,1.7,2.1c1.2,0.2,2.3-0.8,2.3-2v-28c0-11-9-13.3-20-13.3H20z"/>
	<path id="XMLID_21_" class="st2" d="M212.5,116.2c11,0,20-2.3,20-13.3v-28c0-1.2-1.1-2.2-2.3-2c-1,0.1-1.7,1.1-1.7,2.1v20.6
		c0,5-4,9-9,9h-54.2c-5,0-9-4-9-9V75c0-1-0.7-2-1.7-2.1c-0.1,0-0.1,0-0.2,0c-0.1,0-0.1,0-0.2,0c-0.1,0-0.1,0-0.2,0
		c-0.1,0-0.1,0-0.2,0c-1,0.1-1.7,1.1-1.7,2.1v20.6c0,5-4,9-9,9H89.1c-4.7,0-8.5-3.6-9-8.2V74.8c0-1-0.7-1.8-1.7-2c0,0,0,0,0,0
		c0,0,0,0,0,0c-0.1,0-0.2,0-0.3,0c-0.1,0-0.2,0-0.3,0c0,0,0,0,0,0c0,0,0,0,0,0c-1,0.1-1.7,1-1.7,2v21.6c-0.4,4.6-4.3,8.2-9,8.2H13
		c-5,0-9-4-9-9L4,75c0-1-0.7-2-1.7-2.1c-1.2-0.2-2.3,0.8-2.3,2l0,28c0,11,9,13.3,20,13.3H212.5z"/>
</g>
</svg>
